Change Component Designator: OldDesignator=C2 NewDesignator=C3
Change Component Designator: OldDesignator=C3 NewDesignator=C6
Added Component: Designator=C2(CC1206N)
Add component. Clean all parameters for all variants
Add component (AddParameter): Name = "Package"; Value = "1206"; VariantName = "[No Variations]"
Add component (AddParameter): Name = "Type"; Value = "Ceramic"; VariantName = "[No Variations]"
Add component (AddParameter): Name = "Value"; Value = "0.1u"; VariantName = "[No Variations]"
Add component (AddParameter): Name = "Voltage"; Value = "50V"; VariantName = "[No Variations]"
Added Component: Designator=C5(CC1206N)
Add component. Clean all parameters for all variants
Add component (AddParameter): Name = "Package"; Value = "1206"; VariantName = "[No Variations]"
Add component (AddParameter): Name = "Type"; Value = "Ceramic"; VariantName = "[No Variations]"
Add component (AddParameter): Name = "Value"; Value = "0.1u"; VariantName = "[No Variations]"
Add component (AddParameter): Name = "Voltage"; Value = "50V"; VariantName = "[No Variations]"
Added Pin To Net: NetName=Gnd Pin=C2-1
Added Pin To Net: NetName=Vin2 Pin=C2-2
Added Pin To Net: NetName=Gnd Pin=C5-1
Added Pin To Net: NetName=Vin5 Pin=C5-2
Added Member To Class: ClassName=lumiere_ctrl_shematic Member=Component C5 CapSMD
Added Member To Class: ClassName=lumiere_ctrl_shematic Member=Component C6 CapSMD
Added Room: Name=lumiere_ctrl_shematic
